satId = "QB02";
bandId = "P";
SpecId = "RPC00B";
BEGINGROUP = IMAGE
       errBias = 0.0;
       errRand = 0.0;
       lineOffset =   744;
       sampOffset =  6638;
       latOffset = -37.82600000;
       longOffset = 144.95310000;
       heightOffset =    81.000;
       lineScale =   11759.00;
       sampScale =   13840.00;
       latScale =   0.09200000;
       longScale =    0.11510000;
       heightScale =   500.000;
       lineNumCoef = (
                       -2.098876000000000E-003,
                       -4.681201000000000E-002,
                       -1.016764000000000E+000,
                       +3.100366000000000E-002,
                       -1.990666000000000E-004,
                       +1.308513000000000E-005,
                       +3.480982000000000E-005,
                       +1.111412000000000E-004,
                       +2.113613000000000E-003,
                       -6.742035000000000E-006,
                       -4.581010000000000E-007,
                       +1.978568000000000E-006,
                       +2.595969000000000E-005,
                       +2.046783000000000E-006,
                       +4.217373000000000E-005,
                       +1.323606000000000E-004,
                       +4.557966000000000E-005,
                       -1.293773000000000E-006,
                       -8.478806000000000E-007,
                       -2.009373000000000E-006);
       lineDenCoef = (
                       +1.000000000000000E+000,
                       -2.951154000000000E-004,
                       +4.652500000000000E-005,
                       +9.000199000000000E-005,
                       +2.326880000000000E-005,
                       -1.630799000000000E-007,
                       +9.575775000000001E-007,
                       -4.550934000000000E-005,
                       +9.403914000000000E-005,
                       -4.448465000000000E-005,
                       +2.124986000000000E-006,
                       +0.000000000000000E+000,
                       -2.661917000000000E-005,
                       -5.786716000000000E-008,
                       -1.341282000000000E-006,
                       -1.926650000000000E-004,
                       -1.885343000000000E-006,
                       +5.308218000000000E-008,
                       +2.083467000000000E-005,
                       -6.908412000000000E-007);
       sampNumCoef = (
                       +1.970645000000000E-003,
                       +1.007740000000000E+000,
                       +1.198989000000000E-002,
                       +4.567735000000000E-003,
                       +5.948227000000000E-005,
                       +5.875995000000000E-004,
                       -2.085601000000000E-004,
                       -2.079869000000000E-003,
                       -1.657078000000000E-003,
                       +1.063109000000000E-005,
                       +1.520444000000000E-006,
                       -1.023336000000000E-005,
                       -1.572716000000000E-005,
                       -6.763444000000000E-006,
                       +6.119638000000000E-005,
                       -8.496355000000000E-005,
                       -1.627358000000000E-006,
                       -4.597367000000000E-006,
                       -4.212437000000000E-006,
                       -1.155216000000000E-006);
       sampDenCoef = (
                       +1.000000000000000E+000,
                       +1.064023000000000E-004,
                       -6.137418000000000E-005,
                       -5.992763000000000E-004,
                       -3.336496000000000E-005,
                       +1.875427000000000E-006,
                       -1.081699000000000E-006,
                       -6.938317000000000E-007,
                       +7.301897000000000E-006,
                       -7.124322000000000E-006,
                       -1.313868000000000E-007,
                       -3.005304000000000E-008,
                       +3.062906000000000E-007,
                       -2.341783000000000E-008,
                       +3.531879000000000E-007,
                       -2.545581000000000E-006,
                       +0.000000000000000E+000,
                       +3.018947000000000E-008,
                       +7.868375000000000E-008,
                       +1.854478000000000E-008);
END_GROUP = IMAGE
END;
